
{"current_page":1,"data":[{"id":13,"name":"Qu\u1ea7n \u00e1o nam","parent_id":0,"slug":"quan-ao-nam","created_at":"2023-08-16T15:37:40.000000Z","updated_at":"2023-08-16T15:37:40.000000Z","deleted_at":null},{"id":14,"name":"Qu\u1ea7n \u00e1o n\u1eef","parent_id":0,"slug":"quan-ao-nu","created_at":"2023-08-16T15:37:51.000000Z","updated_at":"2023-08-16T15:37:51.000000Z","deleted_at":null},{"id":15,"name":"Qu\u1ea7n \u00e1o nam m\u00f9a \u0111\u00f4ng","parent_id":13,"slug":"quan-ao-nam-mua-dong","created_at":"2023-08-16T15:55:38.000000Z","updated_at":"2023-08-16T15:55:38.000000Z","deleted_at":null},{"id":16,"name":"Qu\u1ea7n \u00e1o nam m\u00f9a h\u00e8","parent_id":13,"slug":"quan-ao-nam-mua-he","created_at":"2023-08-16T15:55:56.000000Z","updated_at":"2023-08-16T15:55:56.000000Z","deleted_at":null},{"id":17,"name":"Qu\u1ea7n \u00e1o th\u1ec3 thao nam","parent_id":13,"slug":"quan-ao-the-thao-nam","created_at":"2023-08-16T15:56:24.000000Z","updated_at":"2023-08-16T15:56:24.000000Z","deleted_at":null}],"first_page_url":"http:\/\/127.0.0.1:8000\/admins\/categories\/index?page=1","from":1,"last_page":2,"last_page_url":"http:\/\/127.0.0.1:8000\/admins\/categories\/index?page=2","links":[{"url":null,"label":"&laquo; Previous","active":false},{"url":"http:\/\/127.0.0.1:8000\/admins\/categories\/index?page=1","label":"1","active":true},{"url":"http:\/\/127.0.0.1:8000\/admins\/categories\/index?page=2","label":"2","active":false},{"url":"http:\/\/127.0.0.1:8000\/admins\/categories\/index?page=2","label":"Next &raquo;","active":false}],"next_page_url":"http:\/\/127.0.0.1:8000\/admins\/categories\/index?page=2","path":"http:\/\/127.0.0.1:8000\/admins\/categories\/index","per_page":5,"prev_page_url":null,"to":5,"total":8}